CREATE OR REPLACE TRIGGER "SY910"."F95921_AFTERINSERT"
AFTER UPDATE OR INSERT OR DELETE ON "SY910"."F95921"
FOR EACH ROW
DECLARE 
	v_username varchar2(10); 
	v_action varchar2(10);
	oldRLFRROLE NCHAR(15) := ' ';
	oldRLTOROLE NCHAR(15) := ' ';
	oldRLEFFDATE NUMBER(6) := 0;
	oldRLEXPIRDATE NUMBER(6) := 0;
	oldRLROLETYP NCHAR(1) := ' ';
	oldRLSYSROLE NCHAR(1) := ' ';
	oldRLDEFROLE NCHAR(1) := ' ';
	oldRLFUROLE1 NCHAR(1) := ' ';
	oldRLFUROLE2 NCHAR(1) := ' ';
	oldRLFUROLE3 NCHAR(1) := ' ';
	oldRLFUROLE4 NCHAR(1) := ' ';
	oldRLFUROLE5 NCHAR(1) := ' ';
	oldRLFUROLE6 NCHAR(1) := ' ';
	oldRLFUROLE7 NCHAR(1) := ' ';
	oldRLFUROLE8 NCHAR(1) := ' ';
	oldRLFUROLE9 NCHAR(1) := ' ';
	oldRLFUROLE10 NCHAR(1) := ' ';
	oldRLFUROLE11 NCHAR(1) := ' ';
	oldRLFUROLE12 NCHAR(1) := ' ';
	oldRLFUROLE13 NCHAR(1) := ' ';
	oldRLFUROLE14 NCHAR(1) := ' ';
	oldRLFUROLE15 NCHAR(1) := ' ';
	oldRLFUROLE16 NCHAR(1) := ' ';
	oldRLFUROLE17 NCHAR(1) := ' ';
	oldRLFUROLE18 NCHAR(1) := ' ';
	oldRLFUROLE19 NCHAR(1) := ' ';
	oldRLFUROLE20 NCHAR(1) := ' ';
	oldRLFUROLE22 NCHAR(10) := ' ';
	oldRLFUROLE23 NCHAR(40) := ' ';
	oldRLFUROLE24 NUMBER := 0;
	oldRLFUROLE25 NUMBER := 0;
	oldRLUSER NCHAR(10) := ' ';
	oldRLPID NCHAR(10) := ' ';
	oldRLJOBN NCHAR(10) := ' ';
	oldRLUPMJ NUMBER(6) := 0;
	oldRLUPMT NUMBER := 0;
	newRLFRROLE NCHAR(15) := ' ';
	newRLTOROLE NCHAR(15) := ' ';
	newRLEFFDATE NUMBER(6) := 0;
	newRLEXPIRDATE NUMBER(6) := 0;
	newRLROLETYP NCHAR(1) := ' ';
	newRLSYSROLE NCHAR(1) := ' ';
	newRLDEFROLE NCHAR(1) := ' ';
	newRLFUROLE1 NCHAR(1) := ' ';
	newRLFUROLE2 NCHAR(1) := ' ';
	newRLFUROLE3 NCHAR(1) := ' ';
	newRLFUROLE4 NCHAR(1) := ' ';
	newRLFUROLE5 NCHAR(1) := ' ';
	newRLFUROLE6 NCHAR(1) := ' ';
	newRLFUROLE7 NCHAR(1) := ' ';
	newRLFUROLE8 NCHAR(1) := ' ';
	newRLFUROLE9 NCHAR(1) := ' ';
	newRLFUROLE10 NCHAR(1) := ' ';
	newRLFUROLE11 NCHAR(1) := ' ';
	newRLFUROLE12 NCHAR(1) := ' ';
	newRLFUROLE13 NCHAR(1) := ' ';
	newRLFUROLE14 NCHAR(1) := ' ';
	newRLFUROLE15 NCHAR(1) := ' ';
	newRLFUROLE16 NCHAR(1) := ' ';
	newRLFUROLE17 NCHAR(1) := ' ';
	newRLFUROLE18 NCHAR(1) := ' ';
	newRLFUROLE19 NCHAR(1) := ' ';
	newRLFUROLE20 NCHAR(1) := ' ';
	newRLFUROLE22 NCHAR(10) := ' ';
	newRLFUROLE23 NCHAR(40) := ' ';
	newRLFUROLE24 NUMBER := 0;
	newRLFUROLE25 NUMBER := 0;
	newRLUSER NCHAR(10) := ' ';
	newRLPID NCHAR(10) := ' ';
	newRLJOBN NCHAR(10) := '  ';
	newRLUPMJ NUMBER(6) := 0;
	newRLUPMT NUMBER := 0;
BEGIN
    -- Find username of person performing UPDATE on the table
   SELECT user INTO v_username
   FROM dual;
   
    IF INSERTING THEN 
        v_action := 'Insert';
	newRLFRROLE := :new.RLFRROLE;
	newRLTOROLE := :new.RLTOROLE;
	newRLEFFDATE := :new.RLEFFDATE;
	newRLEXPIRDATE := :new.RLEXPIRDATE;
	newRLROLETYP := :new.RLROLETYP;
	newRLSYSROLE := :new.RLSYSROLE;
	newRLDEFROLE := :new.RLDEFROLE;
	newRLFUROLE1 := :new.RLFUROLE1;
	newRLFUROLE2 := :new.RLFUROLE2;
	newRLFUROLE3 := :new.RLFUROLE3;
	newRLFUROLE4 := :new.RLFUROLE4;
	newRLFUROLE5 := :new.RLFUROLE5;
	newRLFUROLE6 := :new.RLFUROLE6;
	newRLFUROLE7 := :new.RLFUROLE7;
	newRLFUROLE8 := :new.RLFUROLE8;
	newRLFUROLE9 := :new.RLFUROLE9;
	newRLFUROLE10 := :new.RLFUROLE10;
	newRLFUROLE11 := :new.RLFUROLE11;
	newRLFUROLE12 := :new.RLFUROLE12;
	newRLFUROLE13 := :new.RLFUROLE13;
	newRLFUROLE14 := :new.RLFUROLE14;
	newRLFUROLE15 := :new.RLFUROLE15;
	newRLFUROLE16 := :new.RLFUROLE16;
	newRLFUROLE17 := :new.RLFUROLE17;
	newRLFUROLE18 := :new.RLFUROLE18;
	newRLFUROLE19 := :new.RLFUROLE19;
	newRLFUROLE20 := :new.RLFUROLE20;
	newRLFUROLE22 := :new.RLFUROLE22;
	newRLFUROLE23 := :new.RLFUROLE23;
	newRLFUROLE24 := :new.RLFUROLE24;
	newRLFUROLE25 := :new.RLFUROLE25;
	newRLUSER := :new.RLUSER;
	newRLPID := :new.RLPID;
	newRLJOBN := :new.RLJOBN;
	newRLUPMJ := :new.RLUPMJ;
	newRLUPMT := :new.RLUPMT;
    END IF;
    IF DELETING THEN 
        v_action := 'Delete'; 
	oldRLFRROLE := :old.RLFRROLE;
	oldRLTOROLE := :old.RLTOROLE;
	oldRLEFFDATE := :old.RLEFFDATE;
	oldRLEXPIRDATE := :old.RLEXPIRDATE;
	oldRLROLETYP := :old.RLROLETYP;
	oldRLSYSROLE := :old.RLSYSROLE;
	oldRLDEFROLE := :old.RLDEFROLE;
	oldRLFUROLE1 := :old.RLFUROLE1;
	oldRLFUROLE2 := :old.RLFUROLE2;
	oldRLFUROLE3 := :old.RLFUROLE3;
	oldRLFUROLE4 := :old.RLFUROLE4;
	oldRLFUROLE5 := :old.RLFUROLE5;
	oldRLFUROLE6 := :old.RLFUROLE6;
	oldRLFUROLE7 := :old.RLFUROLE7;
	oldRLFUROLE8 := :old.RLFUROLE8;
	oldRLFUROLE9 := :old.RLFUROLE9;
	oldRLFUROLE10 := :old.RLFUROLE10;
	oldRLFUROLE11 := :old.RLFUROLE11;
	oldRLFUROLE12 := :old.RLFUROLE12;
	oldRLFUROLE13 := :old.RLFUROLE13;
	oldRLFUROLE14 := :old.RLFUROLE14;
	oldRLFUROLE15 := :old.RLFUROLE15;
	oldRLFUROLE16 := :old.RLFUROLE16;
	oldRLFUROLE17 := :old.RLFUROLE17;
	oldRLFUROLE18 := :old.RLFUROLE18;
	oldRLFUROLE19 := :old.RLFUROLE19;
	oldRLFUROLE20 := :old.RLFUROLE20;
	oldRLFUROLE22 := :old.RLFUROLE22;
	oldRLFUROLE23 := :old.RLFUROLE23;
	oldRLFUROLE24 := :old.RLFUROLE24;
	oldRLFUROLE25 := :old.RLFUROLE25;
	oldRLUSER := :old.RLUSER;
	oldRLPID := :old.RLPID;
	oldRLJOBN := :old.RLJOBN;
	oldRLUPMJ := :old.RLUPMJ;
	oldRLUPMT := :old.RLUPMT;
     END IF;
    IF UPDATING THEN 
        v_action := 'Update'; 
	oldRLFRROLE := :old.RLFRROLE;
	oldRLTOROLE := :old.RLTOROLE;
	oldRLEFFDATE := :old.RLEFFDATE;
	oldRLEXPIRDATE := :old.RLEXPIRDATE;
	oldRLROLETYP := :old.RLROLETYP;
	oldRLSYSROLE := :old.RLSYSROLE;
	oldRLDEFROLE := :old.RLDEFROLE;
	oldRLFUROLE1 := :old.RLFUROLE1;
	oldRLFUROLE2 := :old.RLFUROLE2;
	oldRLFUROLE3 := :old.RLFUROLE3;
	oldRLFUROLE4 := :old.RLFUROLE4;
	oldRLFUROLE5 := :old.RLFUROLE5;
	oldRLFUROLE6 := :old.RLFUROLE6;
	oldRLFUROLE7 := :old.RLFUROLE7;
	oldRLFUROLE8 := :old.RLFUROLE8;
	oldRLFUROLE9 := :old.RLFUROLE9;
	oldRLFUROLE10 := :old.RLFUROLE10;
	oldRLFUROLE11 := :old.RLFUROLE11;
	oldRLFUROLE12 := :old.RLFUROLE12;
	oldRLFUROLE13 := :old.RLFUROLE13;
	oldRLFUROLE14 := :old.RLFUROLE14;
	oldRLFUROLE15 := :old.RLFUROLE15;
	oldRLFUROLE16 := :old.RLFUROLE16;
	oldRLFUROLE17 := :old.RLFUROLE17;
	oldRLFUROLE18 := :old.RLFUROLE18;
	oldRLFUROLE19 := :old.RLFUROLE19;
	oldRLFUROLE20 := :old.RLFUROLE20;
	oldRLFUROLE22 := :old.RLFUROLE22;
	oldRLFUROLE23 := :old.RLFUROLE23;
	oldRLFUROLE24 := :old.RLFUROLE24;
	oldRLFUROLE25 := :old.RLFUROLE25;
	oldRLUSER := :old.RLUSER;
	oldRLPID := :old.RLPID;
	oldRLJOBN := :old.RLJOBN;
	oldRLUPMJ := :old.RLUPMJ;
	oldRLUPMT := :old.RLUPMT;
	newRLFRROLE := :new.RLFRROLE;
	newRLTOROLE := :new.RLTOROLE;
	newRLEFFDATE := :new.RLEFFDATE;
	newRLEXPIRDATE := :new.RLEXPIRDATE;
	newRLROLETYP := :new.RLROLETYP;
	newRLSYSROLE := :new.RLSYSROLE;
	newRLDEFROLE := :new.RLDEFROLE;
	newRLFUROLE1 := :new.RLFUROLE1;
	newRLFUROLE2 := :new.RLFUROLE2;
	newRLFUROLE3 := :new.RLFUROLE3;
	newRLFUROLE4 := :new.RLFUROLE4;
	newRLFUROLE5 := :new.RLFUROLE5;
	newRLFUROLE6 := :new.RLFUROLE6;
	newRLFUROLE7 := :new.RLFUROLE7;
	newRLFUROLE8 := :new.RLFUROLE8;
	newRLFUROLE9 := :new.RLFUROLE9;
	newRLFUROLE10 := :new.RLFUROLE10;
	newRLFUROLE11 := :new.RLFUROLE11;
	newRLFUROLE12 := :new.RLFUROLE12;
	newRLFUROLE13 := :new.RLFUROLE13;
	newRLFUROLE14 := :new.RLFUROLE14;
	newRLFUROLE15 := :new.RLFUROLE15;
	newRLFUROLE16 := :new.RLFUROLE16;
	newRLFUROLE17 := :new.RLFUROLE17;
	newRLFUROLE18 := :new.RLFUROLE18;
	newRLFUROLE19 := :new.RLFUROLE19;
	newRLFUROLE20 := :new.RLFUROLE20;
	newRLFUROLE22 := :new.RLFUROLE22;
	newRLFUROLE23 := :new.RLFUROLE23;
	newRLFUROLE24 := :new.RLFUROLE24;
	newRLFUROLE25 := :new.RLFUROLE25;
	newRLUSER := :new.RLUSER;
	newRLPID := :new.RLPID;
	newRLJOBN := :new.RLJOBN;
	newRLUPMJ := :new.RLUPMJ;
	newRLUPMT := :new.RLUPMT;
    END IF;
   
   --DBMS_OUTPUT.PUT_LINE('****' || oldNameValue || ' * ' || oldPositionValue || ' * ' || CURRENT_TIMESTAMP || ' * ' || :new.NAME || ' * ' || :new.POSITION || ' * ' || v_username || ' * ' || v_action);
   
   insert into F95921_GSIAUDIT
        values (oldRLFRROLE,oldRLTOROLE,oldRLEFFDATE,oldRLEXPIRDATE,oldRLROLETYP,oldRLSYSROLE,oldRLDEFROLE,oldRLFUROLE1,oldRLFUROLE2,oldRLFUROLE3,oldRLFUROLE4,oldRLFUROLE5,oldRLFUROLE6,oldRLFUROLE7,oldRLFUROLE8,oldRLFUROLE9,oldRLFUROLE10,oldRLFUROLE11,oldRLFUROLE12,oldRLFUROLE13,oldRLFUROLE14,oldRLFUROLE15,oldRLFUROLE16,oldRLFUROLE17,oldRLFUROLE18,oldRLFUROLE19,oldRLFUROLE20,oldRLFUROLE22,oldRLFUROLE23,oldRLFUROLE24,oldRLFUROLE25,oldRLUSER,oldRLPID,oldRLJOBN,oldRLUPMJ,oldRLUPMT,
        	newRLFRROLE,newRLTOROLE,newRLEFFDATE,newRLEXPIRDATE,newRLROLETYP,newRLSYSROLE,newRLDEFROLE,newRLFUROLE1,newRLFUROLE2,newRLFUROLE3,newRLFUROLE4,newRLFUROLE5,newRLFUROLE6,newRLFUROLE7,newRLFUROLE8,newRLFUROLE9,newRLFUROLE10,newRLFUROLE11,newRLFUROLE12,newRLFUROLE13,newRLFUROLE14,newRLFUROLE15,newRLFUROLE16,newRLFUROLE17,newRLFUROLE18,newRLFUROLE19,newRLFUROLE20,newRLFUROLE22,newRLFUROLE23,newRLFUROLE24,newRLFUROLE25,newRLUSER,newRLPID,newRLJOBN,newRLUPMJ,newRLUPMT,
        CURRENT_TIMESTAMP, v_username, v_action);
        
END;
